{
  "switches": [
    {
      "id": 19769,
      "name": "",
      "hardware_id": "1234",
      "max_flows": 124,
      "availability": true,
      "description": "",
      "created_at": "2020-07-30T06:33:29.651Z",
      "updated_at": "2020-07-30T06:33:29.651Z"
    },
    {
      "id": 19767,
      "name": "",
      "hardware_id": "123",
      "max_flows": 123,
      "availability": true,
      "description": "",
      "created_at": "2020-07-30T06:29:56.018Z",
      "updated_at": "2020-07-30T06:29:56.018Z"
    },
    {
      "id": 18393,
      "name": "switch 877",
      "hardware_id": "8S2-WNEV0C",
      "max_flows": 23,
      "availability": true,
      "description": "No",
      "created_at": "2020-01-21T10:01:25.900Z",
      "updated_at": "2020-05-05T16:08:22.001Z"
    },
    {
      "id": 1028,
      "name": "SITE2 Switch2",
      "hardware_id": "90:00:23:23:23:45",
      "max_flows": 4000,
      "availability": true,
      "description": "Hardware id should be a mac address\nSwitch Name validation",
      "created_at": "2020-02-02T05:12:29.179Z",
      "updated_at": "2020-02-02T05:14:26.343Z"
    },
    {
      "id": 1025,
      "name": "2",
      "hardware_id": "2",
      "max_flows": 2,
      "availability": true,
      "description": "2",
      "created_at": "2020-01-31T06:55:03.379Z",
      "updated_at": "2020-01-31T06:55:03.379Z"
    },
    {
      "id": 1024,
      "name": "1",
      "hardware_id": "1",
      "max_flows": 1,
      "availability": true,
      "description": "1",
      "created_at": "2020-01-31T06:54:56.135Z",
      "updated_at": "2020-01-31T06:54:56.135Z"
    },
    {
      "id": 1007,
      "name": "Test one",
      "hardware_id": "001",
      "max_flows": 1,
      "availability": true,
      "description": "",
      "created_at": "2020-01-23T09:54:24.560Z",
      "updated_at": "2020-01-24T13:38:31.424Z"
    },
    {
      "id": 17740,
      "name": "switch 940",
      "hardware_id": "UT53-CTNGYW",
      "max_flows": 800,
      "availability": true,
      "description": "Testing the description editing field. ",
      "created_at": "2020-01-21T10:01:25.900Z",
      "updated_at": "2020-01-22T01:54:00.968Z"
    },
    {
      "id": 19765,
      "name": "switch 1004",
      "hardware_id": "CBQ8-5KEVR4",
      "max_flows": 100,
      "availability": true,
      "description": "",
      "created_at": "2020-01-21T10:01:25.900Z",
      "updated_at": "2020-01-21T10:01:25.900Z"
    },
    {
      "id": 19722,
      "name": "switch 1003",
      "hardware_id": "CYPK-5Y6T3B",
      "max_flows": 800,
      "availability": true,
      "description": "",
      "created_at": "2020-01-21T10:01:25.900Z",
      "updated_at": "2020-01-21T10:01:25.900Z"
    }
  ],
  "pagination": {
    "totalCount": 1011,
    "currentPage": 1,
    "perPage": 10,
    "totalPages": 102,
    "nextPage": 2,
    "prevPage": null,
    "isFirstPage": true,
    "isLastPage": false,
    "startAt": 1,
    "endAt": 10
  }
}